{
    "testPlanName": "default",
    "tests": [
        {
            "testName": "Benchmark.Dhrystone",
            "spec": "default"
        },
        {
            "testName": "Benchmark.dbench",
            "spec": "default"
        },
        {
            "testName": "Benchmark.blobsallad",
            "spec": "default"
        },
        {
            "testName": "Benchmark.gtkperf",
            "spec": "default"
        },
        {
            "testName": "Benchmark.glmark",
            "spec": "default"
        },
        {
            "testName": "Benchmark.ebizzy",
            "spec": "default"
        },
        {
            "testName": "Benchmark.java",
            "spec": "default"
        },
        {
            "testName": "Benchmark.hackbench",
            "spec": "default"
        },
        {
            "testName": "Benchmark.himeno",
            "spec": "default"
        },
        {
            "testName": "Benchmark.Interbench",
            "spec": "default"
        },
        {
            "testName": "Benchmark.iperf",
            "spec": "default"
        },
        {
            "testName": "Benchmark.netperf",
            "spec": "default"
        },
        {
            "testName": "Benchmark.netpipe",
            "spec": "default"
        },
        {
            "testName": "Benchmark.openssl",
            "spec": "default"
        },
        {
            "testName": "Benchmark.stream",
            "spec": "default"
        },
        {
            "testName": "Benchmark.Whetstone",
            "spec": "default"
        },
        {
            "testName": "Benchmark.x11perf",
            "spec": "default"
        },
        {
            "testName": "Benchmark.signaltest",
            "spec": "default"
        },
        {
            "testName": "Benchmark.reboot",
            "spec": "default"
        },
        {
            "testName": "Benchmark.linpack",
            "spec": "default"
        },
        {
            "testName": "Benchmark.nbench_byte",
            "spec": "default"
        },
        {
            "testName": "Benchmark.cyclictest",
            "spec": "default"
        },
        {
            "testName": "Benchmark.bc",
            "spec": "default"
        },
        {
            "testName": "Benchmark.Bonnie",
            "spec": "default"
        },
        {
            "testName": "Benchmark.ffsb",
            "spec": "default"
        },
        {
            "testName": "Benchmark.fio",
            "spec": "default"
        },
        {
            "testName": "Benchmark.IOzone",
            "spec": "default"
        },
        {
            "testName": "Benchmark.lmbench2",
            "spec": "default"
        },
        {
            "testName": "Benchmark.Tiobench",
            "spec": "default"
        },
        {
            "testName": "Functional.LTP-DDT.Ipc",
            "spec": "default"
        },
        {
            "testName": "Functional.LTP-DDT.Math",
            "spec": "default"
        },
        {
            "testName": "Functional.LTP-DDT.Mm",
            "spec": "default"
        },
        {
            "testName": "Functional.LTP-DDT.Nptl",
            "spec": "default"
        },
        {
            "testName": "Functional.LTP-DDT.Pipes",
            "spec": "default"
        },
        {
            "testName": "Functional.LTP-DDT.Platform",
            "spec": "default"
        },
        {
            "testName": "Functional.LTP-DDT.Syscalls",
            "spec": "default"
        },
        {
            "testName": "Functional.LTP-DDT.Timers",
            "spec": "default"
        },
        {
            "testName": "Functional.LTP.Devices",
            "spec": "default"
        },
        {
            "testName": "Functional.LTP.Filesystem",
            "spec": "default"
        },
        {
            "testName": "Functional.LTP.Open_Posix",
            "spec": "default"
        },
        {
            "testName": "Functional.OpenSSL",
            "spec": "default"
        },
        {
            "testName": "Functional.aiostress",
            "spec": "default"
        },
        {
            "testName": "Functional.bzip2",
            "spec": "default"
        },
        {
            "testName": "Functional.crashme",
            "spec": "default"
        },
        {
            "testName": "Functional.expat",
            "spec": "default"
        },
        {
            "testName": "Functional.fontconfig",
            "spec": "default"
        },
        {
            "testName": "Functional.ft2demos",
            "spec": "default"
        },
        {
            "testName": "Functional.glib",
            "spec": "default"
        },
        {
            "testName": "Functional.ipv6connect",
            "spec": "default"
        },
        {
            "testName": "Functional.jpeg",
            "spec": "default"
        },
        {
            "testName": "Functional.linus_stress",
            "spec": "default"
        },
        {
            "testName": "Functional.pi_tests",
            "spec": "default"
        },
        {
            "testName": "Functional.posixtestsuite",
            "spec": "default"
        },
        {
            "testName": "Functional.rmaptest",
            "spec": "default"
        },
        {
            "testName": "Functional.netperf",
            "spec": "default"
        },
        {
            "testName": "Functional.scrashme",
            "spec": "default"
        },
        {
            "testName": "Functional.stress",
            "spec": "default"
        },
        {
            "testName": "Functional.synctest",
            "spec": "default"
        },
        {
            "testName": "Functional.zlib",
            "spec": "default"
        }
    ]
}                    
